Predicting Popularity on Youtube
…
Here we load the data into our variable called data. We only selected the factors that we want to test, which includes the videos titles, tags, number of views, and publish time. We group by title because one video appears multiple times in the data as there is a new entry for every time a video is on the trending page. Grouping by the maximum number of views a video recieved shows us the end result of viewer success that we are looking for. We do not care about the content of the tags or title, so we obtained the number of tags and characters in titles as a part of our data preparation. In additon, we parsed the time variable so that we could see clearly what hour the video was published.

data <- read.csv("file:///C:/Users/nmate/Documents/USVideos.csv") %>%
  select(title, tags, views, publish_time) %>%
  group_by(title) %>%
  #multiple instances so we use the one with highest view count 
  filter(views == max(views)) %>% 
  #count number of | to find number of tags
  mutate(num_of_tags = ifelse(tags == "[none]", 0, str_count(tags, "\\|") + 1)) %>%
  mutate(title_length = str_count(title)) %>%
  mutate(hour = strtoi(substr(publish_time, 12, 13), 10L))

data

## # A tibble: 6,458 x 7
## # Groups:   title [6,455]
##    title        tags          views publish_time  num_of_tags title_length  hour
##    <fct>        <fct>         <int> <fct>               <dbl>        <int> <int>
##  1 Dion Lewis'~ NFL|Footbal~ 8.14e4 2017-11-13T0~          49           86     2
##  2 TL;DW - Eve~ screenjunki~ 2.89e5 2017-11-12T1~          28           46    18
##  3 Iraq-Iran e~ bbc|bbc new~ 3.48e4 2017-11-12T2~          10           65    21
##  4 AFFAIRS, EX~ shawn johns~ 3.21e5 2017-11-11T1~          44           75    15
##  5 People are ~ people are ~ 6.98e4 2017-11-13T1~          27           65    13
##  6 Jason Momoa~ Graham Nort~ 1.50e6 2017-11-10T1~          14           71    19
##  7 Mayo Clinic~ Mayo Clinic~ 2.37e5 2017-11-10T1~           8           66    12
##  8 Jason Momoa~ James Corde~ 1.50e6 2017-11-10T0~          26           45     9
##  9 Mark Wahlbe~ Late Night|~ 2.25e5 2017-11-10T1~          29           54    11
## 10 Camila Cabe~ camila cabe~ 5.48e6 2017-11-10T0~          31           55     5
## # ... with 6,448 more rows
…
